1={11804 }
2={11846 }
3={9638 }
4={6723 }
5={395 }
6={6560 }
7={9431 }
8={6583 }
9={9421 }
10={12562 }
11={6407 }
12={9340 }
13={9079 }
14={6536 }
15={11521 }
16={9523 }
17={11642 }
18={13011 }
19={6777 }
20={6613 }
21={3961 }
22={11711 }
23={9631 }
24={11631 }
25={6618 }
26={3754 }
27={9658 }
28={9503 }
29={3476 }
30={3659 }
31={6917 }
32={3589 }
33={6651 }
34={6537 }
35={6496 }
36={11318 }
37={3260 }
38={11147 }
39={11598 }
40={4661 }
41={3986 }
42={11435 }
43={6751 }
44={11762 }
45={9621 }
46={11603 }
47={1109 }
48={3908 }
49={11747 }
50={9517 }
51={495 }
52={3688 }
53={9515 }
54={11445 }
55={3524 }
56={309 }
57={3355 }
58={317 }
59={3395 }
60={6524 }
61={11276 }
62={9334 }
63={9361 }
64={11444 }
65={6559 }
66={11414 }
67={6464 }
68={11478 }
69={424 }
70={9692 }
71={6573 }
72={11554 }
73={6571 }
74={3583 }
75={3553 }
76={711 }
77={9635 }
78={687 }
79={744 }
80={9548 }
81={3645 }
82={11608 }
83={6697 }
84={3676 }
85={334 }
86={243 }
87={11492 }
88={11398 }
89={3743 }
90={3497 }
91={491 }
92={3559 }
93={6520 }
94={6546 }
95={10286 }
96={6413 }
97={11301 }
98={9290 }
99={3206 }
100={4861 }
101={10245 }
102={3654 }
103={11816 }
104={9591 }
105={9809 }
106={3865 }
107={797 }
108={6953 }
109={3596 }
110={11078 }
111={3025 }
112={11768 }
113={7377 }
114={9772 }
115={4014 }
116={12003 }
117={9826 }
118={4135 }
119={3329 }
120={6104 }
121={9392 }
122={311 }
123={11406 }
124={408 }
125={11253 }
126={6103 }
127={9458 }
128={9297 }
129={9250 }
130={9379 }
131={11299 }
132={6335 }
133={9237 }
134={9255 }
135={11267 }
136={11055 }
137={6724 }
138={11160 }
139={329 }
140={3128 }
141={3182 }
142={199 }
143={3098 }
144={2995 }
145={9228 }
146={3185 }
147={185 }
148={11030 }
149={3172 }
150={165 }
151={3660 }
152={671 }
153={673 }
154={6700 }
155={11610 }
156={12098 }
157={6980 }
158={9745 }
159={3780 }
160={9598 }
161={6606 }
162={9907 }
163={3601 }
164={7003 }
165={11779 }
166={3954 }
167={6959 }
168={10024 }
169={12070 }
170={931 }
171={11710 }
172={9703 }
173={7068 }
174={3918 }
175={6896 }
176={6936 }
177={9793 }
178={13071 }
179={6986 }
180={6921 }
181={6996 }
182={12058 }
183={7193 }
184={3893 }
185={3914 }
186={7096 }
187={8435 }
188={281 }
189={9731 }
190={3296 }
191={4640 }
192={3738 }
193={6589 }
194={6232 }
195={9097 }
196={568 }
197={11715 }
198={6480 }
199={462 }
200={3399 }
201={6593 }
202={3494 }
203={11424 }
204={3759 }
205={3345 }
206={11322 }
207={6249 }
208={11186 }
209={3310 }
210={9254 }
211={649 }
212={3819 }
213={9123 }
214={3075 }
215={3067 }
216={3144 }
217={11395 }
218={11559 }
219={3290 }
220={558 }
221={3531 }
222={6411 }
223={6262 }
224={315 }
225={463 }
226={11422 }
227={3491 }
228={3479 }
229={6763 }
230={6997 }
231={11599 }
232={728 }
233={11609 }
234={775 }
235={11661 }
236={618 }
237={745 }
238={11400 }
239={578 }
240={9518 }
241={9371 }
242={3235 }
243={236 }
244={70 }
245={6544 }
246={6264 }
247={6203 }
248={6101 }
249={372 }
250={6302 }
251={3382 }
252={9270 }
253={3268 }
254={269 }
255={9324 }
256={9381 }
257={6329 }
258={6398 }
259={559 }
260={11396 }
261={4442 }
262={11047 }
263={95 }
264={6131 }
265={9464 }
266={10922 }
267={5064 }
268={5041 }
269={10777 }
270={1280 }
271={8036 }
272={8058 }
273={12022 }
274={5013 }
275={12648 }
276={749 }
277={2011 }
278={1568 }
279={8229 }
280={8175 }
281={4967 }
282={4000 }
283={4313 }
284={1713 }
285={10427 }
286={4334 }
287={7702 }
288={7382 }
289={4392 }
290={10113 }
291={7977 }
292={7995 }
293={10752 }
294={2018 }
295={7548 }
296={2100 }
297={1903 }
298={10862 }
299={12960 }
300={12336 }
301={11023 }
302={10965 }
303={12997 }
304={10482 }
305={8047 }
306={7991 }
307={5000 }
308={7123 }
309={12716 }
310={2035 }
311={2077 }
312={8017 }
313={12753 }
314={12823 }
315={7590 }
316={13087 }
317={1988 }
318={1635 }
319={7632 }
320={8067 }
321={12208 }
322={2093 }
323={4386 }
324={12860 }
325={4501 }
326={10062 }
327={12236 }
328={1567 }
329={12625 }
330={12612 }
331={12698 }
332={12503 }
333={4338 }
334={2170 }
335={10491 }
336={4384 }
337={13003 }
338={6221 }
339={10038 }
340={11778 }
341={922 }
342={1005 }
343={11831 }
344={6956 }
345={4124 }
346={11792 }
347={11811 }
348={3807 }
349={3862 }
350={6813 }
351={62 }
352={12476 }
353={876 }
354={3979 }
355={9915 }
356={6938 }
357={6719 }
358={11665 }
359={6845 }
360={3880 }
361={6823 }
362={11738 }
363={12445 }
364={3994 }
365={12498 }
366={12439 }
367={4464 }
368={10824 }
369={6974 }
370={4622 }
371={1643 }
372={12489 }
373={4449 }
374={8025 }
375={6798 }
376={3883 }
377={1793 }
378={6745 }
379={7684 }
380={6742 }
381={4723 }
382={4814 }
383={1753 }
384={12586 }
385={4347 }
386={7386 }
387={10602 }
388={12572 }
389={6722 }
390={10569 }
391={10618 }
392={1678 }
393={695 }
394={10341 }
395={1655 }
396={4437 }
397={12558 }
398={189 }
399={7359 }
400={6191 }
401={499 }
402={12179 }
403={7774 }
404={12177 }
405={4467 }
406={11591 }
407={4351 }
408={6961 }
409={1343 }
410={2101 }
411={12756 }
412={12832 }
413={5089 }
414={10913 }
415={12871 }
416={1521 }
417={1982 }
418={8093 }
419={10454 }
420={4580 }
421={5050 }
422={12258 }
423={1409 }
424={7340 }
425={4315 }
426={10255 }
427={8087 }
428={9975 }
429={7119 }
430={9993 }
431={10077 }
432={7455 }
433={7080 }
434={1996 }
435={4544 }
436={7574 }
437={4950 }
438={5086 }
439={2032 }
440={9084 }
441={12754 }
442={12884 }
443={7084 }
444={4891 }
445={7847 }
446={12049 }
447={7091 }
448={9980 }
449={4057 }
450={10123 }
451={4151 }
452={1071 }
453={1112 }
454={1015 }
455={4574 }
456={12099 }
457={12002 }
458={1046 }
459={1145 }
460={9976 }
461={7069 }
462={4139 }
463={7855 }
464={7361 }
465={7379 }
466={12147 }
467={1873 }
468={4417 }
469={10611 }
470={7787 }
471={7891 }
472={7830 }
473={4343 }
474={4965 }
475={4991 }
476={8236 }
477={12810 }
478={13089 }
479={12721 }
480={7973 }
481={7921 }
482={12827 }
483={10848 }
484={12461 }
485={10773 }
486={2007 }
487={12902 }
488={10879 }
489={5088 }
490={12983 }
491={10970 }
492={2210 }
493={12703 }
494={8191 }
495={12770 }
496={5223 }
497={2228 }
498={10989 }
499={10392 }
500={12996 }
501={8148 }
502={12396 }
503={4548 }
504={12951 }
505={5208 }
506={12994 }
507={2161 }
508={12928 }
509={5213 }
510={1449 }
511={2179 }
512={12321 }
513={12100 }
514={5095 }
515={10827 }
516={13060 }
517={1759 }
518={12645 }
519={5197 }
520={12311 }
521={10350 }
522={8228 }
523={2129 }
524={12068 }
525={12011 }
526={10124 }
527={12040 }
528={12032 }
529={1092 }
530={4094 }
531={1051 }
532={1182 }
533={1024 }
534={10128 }
535={10032 }
536={4646 }
537={1322 }
538={3109 }
539={8244 }
540={10594 }
541={2207 }
542={4735 }
543={10993 }
544={2120 }
545={5199 }
546={2196 }
547={5196 }
548={12989 }
549={5060 }
550={5047 }
551={12881 }
552={8069 }
553={792 }
554={1074 }
555={1515 }
556={5045 }
557={8035 }
558={10831 }
559={12814 }
560={4290 }
561={10678 }
562={11607 }
563={4762 }
564={10528 }
565={7736 }
566={12525 }
567={4808 }
568={7744 }
569={4793 }
570={4366 }
571={10696 }
572={12106 }
573={1704 }
574={10589 }
575={12668 }
576={12514 }
577={10663 }
578={1674 }
579={12574 }
580={4746 }
581={12659 }
582={10329 }
583={4340 }
584={12491 }
585={7682 }
586={7711 }
587={642 }
588={4867 }
589={7795 }
590={1418 }
591={1038 }
592={12077 }
593={7182 }
594={7137 }
595={7027 }
596={1055 }
597={7189 }
598={4005 }
599={12436 }
600={4038 }
601={8104 }
602={13143 }
603={5072 }
604={10865 }
605={10841 }
606={7094 }
607={7540 }
608={4140 }
609={1052 }
610={10499 }
611={1590 }
612={12448 }
613={12076 }
614={4144 }
615={1180 }
616={8127 }
617={12601 }
618={4714 }
619={1766 }
620={7637 }
621={4525 }
622={12156 }
623={1415 }
624={12279 }
625={1340 }
626={4429 }
627={12245 }
628={1368 }
629={12021 }
630={13051 }
631={13052 }
632={13047 }
633={1002 }
634={1370 }
635={12132 }
636={4286 }
637={4744 }
638={12140 }
639={13021 }
640={4175 }
641={12148 }
642={13050 }
643={13055 }
644={2877 }
645={13025 }
646={13024 }
647={4357 }
648={13026 }
649={5023 }
650={13067 }
651={1305 }
652={1254 }
653={7733 }
654={1702 }
655={1742 }
656={2089 }
657={12192 }
658={2048 }
659={12821 }
660={1473 }
661={11940 }
662={10884 }
663={11951 }
664={3683 }
665={10026 }
666={11067 }
667={12234 }
668={7557 }
669={10436 }
670={10195 }
671={12075 }
672={12138 }
673={4308 }
674={2133 }
675={10815 }
676={901 }
677={10087 }
678={8118 }
679={1920 }
680={1578 }
681={4822 }
682={11571 }
683={2947 }
684={13035 }
685={7617 }
686={1440 }
687={8107 }
688={8203 }
689={12477 }
690={7245 }
691={3284 }
692={13009 }
693={1513 }
694={177 }
695={153 }
696={13010 }
697={3118 }
698={1751 }
699={10875 }
700={2038 }
701={12710 }
702={13014 }
703={13013 }
704={13016 }
705={13015 }
706={13017 }
707={13018 }
708={13072 }
709={2188 }
710={13019 }
711={13005 }
712={13002 }
713={2165 }
714={1588 }
715={4633 }
716={3970 }
717={12342 }
718={2096 }
719={4696 }
720={10995 }
721={12190 }
722={11162 }
723={8204 }
724={1281 }
725={13038 }
726={7290 }
727={13048 }
728={11981 }
729={4189 }
730={373 }
731={10163 }
732={12581 }
733={12251 }
734={7390 }
735={6609 }
736={11735 }
737={1286 }
738={4579 }
739={1869 }
740={1420 }
741={7319 }
742={2074 }
743={10000 }
744={10257 }
745={6851 }
746={4960 }
747={12789 }
748={11972 }
749={4173 }
750={12414 }
751={2067 }
752={12837 }
753={4403 }
754={4536 }
755={2099 }
756={10899 }
757={4900 }
758={5094 }
759={10315 }
760={4843 }
761={10638 }
762={479 }
763={13068 }
764={9522 }
765={11293 }
766={337 }
767={11238 }
768={369 }
769={3396 }
770={6196 }
771={587 }
772={6529 }
773={6542 }
774={694 }
775={11638 }
776={9666 }
777={9545 }
778={3571 }
779={3558 }
780={11544 }
781={11529 }
782={6594 }
783={6488 }
784={9486 }
785={6286 }
786={391 }
787={11233 }
788={11360 }
789={3326 }
790={6349 }
791={9347 }
792={3231 }
793={11331 }
794={6298 }
795={6263 }
796={9238 }
797={3367 }
798={11468 }
799={6582 }
800={537 }
801={445 }
802={9535 }
803={6501 }
804={6592 }
805={9679 }
806={6708 }
807={11634 }
808={3384 }
809={6402 }
810={6347 }
811={422 }
812={630 }
813={9849 }
814={11887 }
815={6913 }
816={11741 }
817={9586 }
818={6889 }
819={6900 }
820={1106 }
821={7127 }
822={3388 }
823={3298 }
824={9100 }
825={4022 }
826={7908 }
827={7100 }
828={7215 }
829={4131 }
830={12888 }
831={7041 }
832={6189 }
833={6346 }
834={3358 }
835={9177 }
836={3275 }
837={6704 }
838={9677 }
839={717 }
840={10523 }
841={12714 }
842={11871 }
843={12442 }
844={1986 }
845={5073 }
846={10781 }
847={10414 }
848={9645 }
849={7233 }
850={5099 }
851={12749 }
852={1955 }
853={8051 }
854={12771 }
855={2088 }
856={2003 }
857={4963 }
858={2044 }
859={8065 }
860={8071 }
861={12817 }
862={12762 }
863={10868 }
864={4913 }
865={7963 }
866={4897 }
867={2025 }
868={1891 }
869={2056 }
870={761 }
871={4869 }
872={12037 }
873={7020 }
874={12812 }
875={1129 }
876={7334 }
877={2005 }
878={12035 }
879={1059 }
880={1622 }
881={12781 }
882={7013 }
883={8100 }
884={7288 }
885={12981 }
886={12792 }
887={4984 }
888={10349 }
889={10918 }
890={8037 }
891={12327 }
892={4704 }
893={11960 }
894={7072 }
895={7212 }
897={1063 }
898={11847 }
899={6905 }
900={7767 }
901={12360 }
902={7295 }
903={4566 }
904={8045 }
905={10283 }
906={3651 }
907={12449 }
908={1197 }
909={10669 }
910={10634 }
911={10623 }
912={7568 }
913={11918 }
914={12014 }
915={4085 }
916={12087 }
917={3495 }
918={6585 }
919={3546 }
920={9609 }
921={9734 }
922={3749 }
923={9857 }
924={958 }
925={9625 }
926={667 }
927={6698 }
928={11590 }
929={6788 }
930={11587 }
931={11726 }
932={967 }
933={3657 }
934={3447 }
935={13081 }
936={7087 }
937={10100 }
938={10020 }
939={10125 }
940={7102 }
941={7217 }
942={1553 }
943={7391 }
944={10872 }
945={4915 }
946={1908 }
947={10866 }
948={12876 }
949={7106 }
950={10021 }
951={10878 }
952={10802 }
953={13205 }
954={12372 }
955={4903 }
956={5035 }
957={7912 }
958={9750 }
959={6973 }
960={11861 }
961={11734 }
962={3976 }
963={773 }
964={11730 }
965={776 }
966={3401 }
967={6185 }
970={11548 }
