﻿division_template = {
	name = "Infantry Regiment"
	division_names_group = ALO_INF_01

	regiments = {
		pikemen = { x = 0 y = 0 }
		pikemen = { x = 0 y = 1 }
		pikemen = { x = 1 y = 0 }
		swordsmen = { x = 1 y = 1 }
	}
	support = {
		archers_support = { x = 0 y = 0 }
		archers_support = { x = 0 y = 1 } 
	}
}
division_template = {
	name = "Cavalry Regiment"
	division_names_group = ALO_CAV_01

	regiments = {
		spear_cav = { x = 0 y = 0 }
		spear_cav = { x = 0 y = 1 }
		spear_cav = { x = 1 y = 0 }
		spear_cav = { x = 1 y = 1 }
	}
}
units = {
	#SOBA#
	division= {	
		name = "Infantry Regiment"
		location = 12881
		division_template = "Infantry Regiment"
		start_experience_factor = 0.1
		start_equipment_factor = 1

	}
	division= {	
		name = "Infantry Regiment"
		location = 12881
		division_template = "Infantry Regiment"
		start_experience_factor = 0.1
		start_equipment_factor = 1

	}
}