﻿division_template = {
	name = "Infantry Regiment"
	division_names_group = BUR_INF_01

	regiments = {
		halberdiers = { x = 0 y = 0 }
		pikemen = { x = 0 y = 1 }
		halberdiers = { x = 1 y = 0 }
		arquebusiers = { x = 1 y = 1 }
	}
	support = {
		arquebusiers_support = { x = 0 y = 0 }
		arbalests_support = { x = 0 y = 1 } 
	}
}
division_template = {
	name = "Cavalry Regiment"
	division_names_group = BUR_CAV_01

	regiments = {
		spear_cav = { x = 0 y = 0 }
		heavy_lancers = { x = 0 y = 1 }
		spear_cav = { x = 1 y = 0 }
		heavy_lancers = { x = 1 y = 1 }
	}
}
units = {
	#DIJON#
	division= {	
		name = "Infantry Regiment"
		location = 680
		division_template = "Infantry Regiment"
		start_experience_factor = 0.1
		start_equipment_factor = 1
	}
	division= {	
		name = "Infantry Regiment"
		location = 680
		division_template = "Infantry Regiment"
		start_experience_factor = 0.1
		start_equipment_factor = 1
	}
	division= {	
		name = "Infantry Regiment"
		location = 680
		division_template = "Infantry Regiment"
		start_experience_factor = 0.1
		start_equipment_factor = 1
	}
	division= {	
		name = "Infantry Regiment"
		location = 680
		division_template = "Infantry Regiment"
		start_experience_factor = 0.1
		start_equipment_factor = 1
	}
	division= {	
		name = "Cavalry Regiment"
		location = 680
		division_template = "Cavalry Regiment"
		start_experience_factor = 0.1
		start_equipment_factor = 1
	}
	division= {	
		name = "Cavalry Regiment"
		location = 680
		division_template = "Cavalry Regiment"
		start_experience_factor = 0.1
		start_equipment_factor = 1
	}
}