state={
	id=743
	name="STATE_743"
	manpower = 385000
	state_category = large_town
	resources={
		oil=8
	}
	
	
	history={
		owner = MNG
		add_core_of = MNG
		victory_points = {
			10000 5 
		}
		buildings = {
			infrastructure = 5
			industrial_complex = 1
			air_base = 1
			10000 = {
				naval_base = 2

			}
		}

	}
	provinces={
		10000
	}
}
