state={
	id=955
	name="STATE_955"

	history={
		owner = NAT
		victory_points = {
			4970 3 
		}
		victory_points = {
			4903 1 
		}
		buildings = {
			infrastructure = 2
			industrial_complex = 1

		}

	}

	provinces={
		4903 4970 5053 8077 
	}
	manpower=177358
	buildings_max_level_factor=1.000
	state_category=rural
}
