state={
	id=956
	name="STATE_956"
	
	history={
		owner = NAT
		victory_points={
			5035 3
		}
		victory_points={
			1967 1
		}
		buildings = {
			infrastructure = 2
		}
		#add_core_of = MZA
	}
	
	provinces={
		1126 1967 2049 5035 7149 
	}
	manpower=117110
	state_category=rural
	buildings_max_level_factor=1.000
}
