
strategic_region={
	id=163
	name="STRATEGICREGION_163"
	provinces={
		1928 1979 2035 2142 2147 2160 2198 2204 2214 4934 4980 4982 5008 5083 5188 5214 5216 5232 8050 8107 8172 8175 8185 8211 8240 8254 10792 10874 10906 10924 10934 10956 10960 10982 10996 11010 12716 12729 12770 12825 12828 12885 12902 12916 12917 12919 12939 12965 12973 13083 
	}
	weather={
		period={
			between={ 0.0 30.0 }
			temperature={ 26.0 28.0 }
			temperature_day_night={ 5.0 -5.0 }
			no_phenomenon=0.300
			rain_light=0.200
			rain_heavy=0.500
			snow=0.000
			blizzard=0.000
			mud=1.000
			sandstorm=0.000
			min_snow_level=0.000
		}
		period={
			between={ 0.1 27.1 }
			temperature={ 26.0 28.0 }
			temperature_day_night={ 5.0 -5.0 }
			no_phenomenon=0.300
			rain_light=0.200
			rain_heavy=0.500
			snow=0.000
			blizzard=0.000
			mud=1.000
			sandstorm=0.000
			min_snow_level=0.000
		}
		period={
			between={ 0.2 30.2 }
			temperature={ 26.0 28.0 }
			temperature_day_night={ 5.0 -5.0 }
			no_phenomenon=0.250
			rain_light=0.300
			rain_heavy=0.450
			snow=0.000
			blizzard=0.000
			mud=1.000
			sandstorm=0.000
			min_snow_level=0.000
		}
		period={
			between={ 0.3 29.3 }
			temperature={ 26.0 28.0 }
			temperature_day_night={ 5.0 -5.0 }
			no_phenomenon=0.250
			rain_light=0.300
			rain_heavy=0.450
			snow=0.000
			blizzard=0.000
			mud=1.000
			sandstorm=0.000
			min_snow_level=0.000
		}
		period={
			between={ 0.4 30.4 }
			temperature={ 26.0 28.0 }
			temperature_day_night={ 5.0 -5.0 }
			no_phenomenon=0.300
			rain_light=0.200
			rain_heavy=0.500
			snow=0.000
			blizzard=0.000
			mud=1.000
			sandstorm=0.000
			min_snow_level=0.000
		}
		period={
			between={ 0.5 29.5 }
			temperature={ 26.0 29.0 }
			temperature_day_night={ 5.0 -5.0 }
			no_phenomenon=0.500
			rain_light=0.100
			rain_heavy=0.400
			snow=0.000
			blizzard=0.000
			mud=1.000
			sandstorm=0.000
			min_snow_level=0.000
		}
		period={
			between={ 0.6 30.6 }
			temperature={ 27.0 29.0 }
			temperature_day_night={ 5.0 -5.0 }
			no_phenomenon=0.600
			rain_light=0.100
			rain_heavy=0.500
			snow=0.000
			blizzard=0.000
			mud=1.000
			sandstorm=0.000
			min_snow_level=0.000
		}
		period={
			between={ 0.7 30.7 }
			temperature={ 27.0 29.0 }
			temperature_day_night={ 7.0 -7.0 }
			no_phenomenon=0.600
			rain_light=0.100
			rain_heavy=0.500
			snow=0.000
			blizzard=0.000
			mud=1.000
			sandstorm=0.000
			min_snow_level=0.000
		}
		period={
			between={ 0.8 29.8 }
			temperature={ 26.0 30.0 }
			temperature_day_night={ 7.0 -7.0 }
			no_phenomenon=0.500
			rain_light=0.100
			rain_heavy=0.400
			snow=0.000
			blizzard=0.000
			mud=1.000
			sandstorm=0.000
			min_snow_level=0.000
		}
		period={
			between={ 0.9 30.9 }
			temperature={ 26.0 30.0 }
			temperature_day_night={ 7.0 -7.0 }
			no_phenomenon=0.500
			rain_light=0.100
			rain_heavy=0.400
			snow=0.000
			blizzard=0.000
			mud=1.000
			sandstorm=0.000
			min_snow_level=0.000
		}
		period={
			between={ 0.10 29.10 }
			temperature={ 26.0 30.0 }
			temperature_day_night={ 5.0 -5.0 }
			no_phenomenon=0.400
			rain_light=0.100
			rain_heavy=0.500
			snow=0.000
			blizzard=0.000
			mud=1.000
			sandstorm=0.000
			min_snow_level=0.000
		}
		period={
			between={ 0.11 30.11 }
			temperature={ 26.0 28.0 }
			temperature_day_night={ 5.0 -5.0 }
			no_phenomenon=0.300
			rain_light=0.200
			rain_heavy=0.500
			snow=0.000
			blizzard=0.000
			mud=1.000
			sandstorm=0.000
			min_snow_level=0.000
		}
	}
}
