
strategic_region={
	id=21
	name="STRATEGICREGION_21"
	provinces={
		557 603 607 611 628 636 653 656 658 661 663 668 671 673 688 704 707 732 770 771 773 776 778 969 3604 3612 3641 3657 3660 3662 3673 3674 3675 3684 3703 3718 3772 3773 3776 3780 3782 3959 6552 6609 6631 6635 6639 6656 6661 6666 6673 6675 6678 6680 6683 6687 6690 6691 6708 6723 6739 6780 6784 6788 6790 9527 9584 9587 9590 9598 9600 9603 9613 9618 9620 9622 9630 9633 9636 9638 9648 9650 9661 9665 9679 9738 9741 9745 9909 11525 11568 11570 11573 11584 11587 11590 11598 11601 11604 11612 11615 11618 11620 11623 11630 11634 11651 11666 11721 11723 11726 11730 11891 13124 
	}
	weather={
		period={
			between={ 0.0 30.0 }
			temperature={ -15.0 -6.0 }
			temperature_day_night={ -5.0 2.0 }
			no_phenomenon=0.500
			rain_light=0.250
			rain_heavy=0.100
			snow=0.500
			blizzard=0.300
			mud=0.000
			sandstorm=0.000
			min_snow_level=0.000
		}
		period={
			between={ 0.1 27.1 }
			temperature={ -15.0 -6.0 }
			temperature_day_night={ -2.0 2.0 }
			no_phenomenon=0.500
			rain_light=0.250
			rain_heavy=0.100
			snow=0.500
			blizzard=0.300
			mud=0.000
			sandstorm=0.000
			min_snow_level=0.000
		}
		period={
			between={ 0.2 30.2 }
			temperature={ 5.0 25.0 }
			temperature_day_night={ -2.0 6.0 }
			no_phenomenon=0.500
			rain_light=0.500
			rain_heavy=0.100
			snow=0.000
			blizzard=0.000
			mud=0.000
			sandstorm=0.000
			min_snow_level=0.000
		}
		period={
			between={ 0.3 29.3 }
			temperature={ 5.0 25.0 }
			temperature_day_night={ -2.0 6.0 }
			no_phenomenon=0.500
			rain_light=0.500
			rain_heavy=0.100
			snow=0.000
			blizzard=0.000
			mud=0.000
			sandstorm=0.000
			min_snow_level=0.000
		}
		period={
			between={ 0.4 30.4 }
			temperature={ 5.0 25.0 }
			temperature_day_night={ -2.0 6.0 }
			no_phenomenon=0.500
			rain_light=0.500
			rain_heavy=0.100
			snow=0.000
			blizzard=0.000
			mud=0.000
			sandstorm=0.000
			min_snow_level=0.000
		}
		period={
			between={ 0.5 29.5 }
			temperature={ 10.0 25.0 }
			temperature_day_night={ -5.0 10.0 }
			no_phenomenon=0.500
			rain_light=0.250
			rain_heavy=0.100
			snow=0.000
			blizzard=0.000
			mud=0.000
			sandstorm=0.000
			min_snow_level=0.000
		}
		period={
			between={ 0.6 30.6 }
			temperature={ 10.0 25.0 }
			temperature_day_night={ -5.0 10.0 }
			no_phenomenon=0.500
			rain_light=0.250
			rain_heavy=0.100
			snow=0.000
			blizzard=0.000
			mud=0.000
			sandstorm=0.000
			min_snow_level=0.000
		}
		period={
			between={ 0.7 30.7 }
			temperature={ 10.0 25.0 }
			temperature_day_night={ -5.0 10.0 }
			no_phenomenon=0.500
			rain_light=0.250
			rain_heavy=0.100
			snow=0.000
			blizzard=0.000
			mud=0.000
			sandstorm=0.000
			min_snow_level=0.000
		}
		period={
			between={ 0.8 29.8 }
			temperature={ 4.0 10.0 }
			temperature_day_night={ -2.0 4.0 }
			no_phenomenon=0.500
			rain_light=0.500
			rain_heavy=0.200
			snow=0.000
			blizzard=0.000
			mud=0.000
			sandstorm=0.000
			min_snow_level=0.000
		}
		period={
			between={ 0.9 30.9 }
			temperature={ 4.0 10.0 }
			temperature_day_night={ -2.0 4.0 }
			no_phenomenon=0.500
			rain_light=0.500
			rain_heavy=0.200
			snow=0.000
			blizzard=0.000
			mud=0.000
			sandstorm=0.000
			min_snow_level=0.000
		}
		period={
			between={ 0.10 29.10 }
			temperature={ -15.0 -6.0 }
			temperature_day_night={ -5.0 2.0 }
			no_phenomenon=0.500
			rain_light=0.250
			rain_heavy=0.100
			snow=0.500
			blizzard=0.300
			mud=0.000
			sandstorm=0.000
			min_snow_level=0.000
		}
		period={
			between={ 0.11 30.11 }
			temperature={ -15.0 -6.0 }
			temperature_day_night={ -5.0 2.0 }
			no_phenomenon=0.500
			rain_light=0.250
			rain_heavy=0.100
			snow=0.500
			blizzard=0.300
			mud=0.000
			sandstorm=0.000
			min_snow_level=0.000
		}
	}
}
